CSCI E-63C: Week 2 Problem Set
…
Tibbles (extra 5 points)

Fluency in R (as any other programming language) involves ability to look up, understand and put to use as necessary functionality that has not been explored before. One of relatively recent additions to R are so-called tibbles that can be seen as modern take on data frames. To earn extra points for this week problem set, please look up tibble use and constrast their behavior to that of conventional data frame using one of the datasets you have already created above. To earn all points available your solution must include more than one example of substantive difference (i.e.same kind of difference illustrated by two datasets counts as one). Please also comment on why use of tibbles may result in more robust code.

library(tibble)
options(tibble.width = Inf)
as_tibble(abaoloneData)

## # A tibble: 4,177 x 9
##    Sex   Length Diameter Height `Whole Weight` `Shucked Weight`
##    <fct>  <dbl>    <dbl>  <dbl>          <dbl>            <dbl>
##  1 M      0.455    0.365  0.095          0.514           0.224 
##  2 M      0.35     0.265  0.09           0.226           0.0995
##  3 F      0.53     0.42   0.135          0.677           0.256 
##  4 M      0.44     0.365  0.125          0.516           0.216 
##  5 I      0.33     0.255  0.08           0.205           0.0895
##  6 I      0.425    0.3    0.095          0.352           0.141 
##  7 F      0.53     0.415  0.15           0.778           0.237 
##  8 F      0.545    0.425  0.125          0.768           0.294 
##  9 M      0.475    0.37   0.125          0.509           0.216 
## 10 F      0.55     0.44   0.15           0.894           0.314 
##    `Viscera Weight` `Shell Weight` Rings
##               <dbl>          <dbl> <int>
##  1           0.101           0.15     15
##  2           0.0485          0.07      7
##  3           0.142           0.21      9
##  4           0.114           0.155    10
##  5           0.0395          0.055     7
##  6           0.0775          0.12      8
##  7           0.142           0.33     20
##  8           0.150           0.26     16
##  9           0.112           0.165     9
## 10           0.151           0.32     19
## # ... with 4,167 more rows
…
